390-final-project-exploratory-analysis
…
df2 <- group_by(df, airplane_model, delay) %>%
summarise(n())
df2["delay_percentage"] <- NA
colnames(df2)[3] <- "count"
for (i in 1:nrow(df2) - 1) {
df2[i, ]$delay_percentage <-
df2[i + 1, ]$count / (df2[i + 1, ]$count + df2[i, ]$count)
}
toDelete <- seq(0, nrow(df2), 2)
df2 <- df2[-toDelete,]
final <-
select(arrange(df2, desc(delay_percentage)), airplane_model, delay_percentage)
final

## Source: local data frame [36 x 2]
## Groups: airplane_model [36]
## 
##    airplane_model delay_percentage
##             <chr>            <dbl>
## 1         737-824        0.6521739
## 2         737-3H4        0.5578093
## 3         737-7H4        0.5079523
## 4         737-5H4        0.5070423
## 5        A321-211        0.4901961
## 6         757-222        0.4767442
## 7       EMB-135KL        0.4676259
## 8         DC-9-51        0.4571429
## 9         757-232        0.4556213
## 10    CL-600-2C10        0.4506667
## # ... with 26 more rows
…
